<?xml version="1.0" encoding="utf-8"?>
<!-- Generator: Adobe Illustrator 16.0.0, SVG Export Plug-In . SVG Version: 6.00 Build 0)  -->
<!DOCTYPE svg PUBLIC "-//W3C//DTD SVG 1.1//EN" "http://www.w3.org/Graphics/SVG/1.1/DTD/svg11.dtd">
<svg version="1.1" id="Layer_1" xmlns="http://www.w3.org/2000/svg" xmlns:xlink="http://www.w3.org/1999/xlink" x="0px" y="0px"
	 width="369.869px" height="145.391px" viewBox="0 0 369.869 145.391" enable-background="new 0 0 369.869 145.391"
	 xml:space="preserve">
<g>
	<path fill="#DBDEE1" d="M4.285,3.169C3.926,4.115,3.328,4.683,2.282,4.683C0.867,4.683,0,3.707,0,2.321C0,0.946,0.897,0,2.282,0
		c0.708,0,1.495,0.339,1.804,1.017c0.06,0.14,0.109,0.289,0.159,0.438L3.866,1.634C3.448,0.847,3.199,0.438,2.242,0.438
		c-0.279,0-0.528,0.069-0.768,0.219v3.368c0.199,0.149,0.429,0.22,0.678,0.22c0.937,0,1.365-0.399,1.734-1.236L4.285,3.169z
		 M1.036,0.847C0.588,1.186,0.438,1.783,0.438,2.321c0,0.548,0.14,1.166,0.598,1.515V0.847z"/>
</g>
<g>
	<path fill="#DBDEE1" d="M6.916,8.394C5.735,7.721,5.092,6.457,5.092,5.187c0-1.384,0.65-2.46,1.847-3.171l0.067,0.12
		c-1.039,0.89-1.271,1.585-1.271,3.028c0,1.391,0.224,2.235,1.271,3.11L6.916,8.394z"/>
</g>
<g>
	<path fill="#DBDEE1" d="M10.765,6.297c-0.508,0.695-0.695,0.845-1.047,0.845c-0.187,0-0.351-0.12-0.351-0.404
		c0-0.074,0.015-0.172,0.12-0.561l0.329-1.211C9.875,4.734,9.92,4.465,9.92,4.375c0-0.135-0.067-0.217-0.18-0.217
		c-0.299,0-0.635,0.366-1.106,1.062C8.297,5.721,8.237,5.893,7.886,7.074H7.325l0.718-2.617C8.051,4.42,8.058,4.375,8.058,4.33
		c0-0.149-0.104-0.194-0.486-0.202V4.009c0.605-0.12,0.815-0.149,1.211-0.231l0.03,0.015l-0.501,1.63
		C9.06,4.226,9.561,3.777,10.04,3.777c0.321,0,0.486,0.187,0.486,0.456c0,0.134-0.03,0.291-0.075,0.448l-0.418,1.518
		c-0.075,0.27-0.105,0.396-0.105,0.456c0,0.067,0.03,0.135,0.12,0.135c0.104,0,0.239-0.119,0.456-0.396
		c0.052-0.06,0.105-0.127,0.157-0.194L10.765,6.297z"/>
</g>
<g>
	<path fill="#DBDEE1" d="M11.435,5.43V4.936H15.6V5.43H11.435z"/>
</g>
<g>
	<path fill="#DBDEE1" d="M16.957,7.074V6.962c0.553-0.029,0.71-0.187,0.71-0.598V3.007c0-0.254-0.067-0.366-0.225-0.366
		c-0.075,0-0.202,0.037-0.336,0.09l-0.202,0.074V2.7l1.338-0.681l0.067,0.022v4.464c0,0.321,0.15,0.456,0.71,0.456v0.112H16.957z"/>
</g>
<g>
	<path fill="#DBDEE1" d="M20.117,2.016c1.144,0.688,1.824,1.937,1.824,3.208c0,1.383-0.658,2.445-1.847,3.17l-0.067-0.119
		c1.062-0.875,1.271-1.578,1.271-3.028c0-1.398-0.187-2.258-1.271-3.11L20.117,2.016z"/>
</g>
<g>
	<path fill="#DBDEE1" d="M50.92,1.846c0.538-0.807,1.106-1.126,1.704-1.126c0.737,0,1.146,0.469,1.146,1.246
		c0,1.644-1.505,3.258-2.959,3.258c-0.229,0-0.438-0.04-0.688-0.169c-0.169,0.697-0.398,1.515-0.398,1.653
		c0,0.22,0.149,0.289,0.618,0.289v0.16H48.32v-0.16c0.428-0.01,0.558-0.159,0.677-0.627l1.146-4.305
		c0.109-0.398,0.159-0.658,0.159-0.708c0-0.238-0.279-0.269-0.438-0.269h-0.219l-0.02-0.149l1.554-0.22c0.03,0,0.05,0.021,0.05,0.04
		c0,0-0.01,0.05-0.02,0.09L50.92,1.846z M52.255,1.148c-0.528,0-1.116,0.538-1.345,1.136c-0.289,0.748-0.647,2.033-0.647,2.372
		c0,0.219,0.199,0.378,0.478,0.378c0.528,0,1.006-0.328,1.445-0.946c0.479-0.668,0.688-1.395,0.688-2.093
		C52.873,1.428,52.704,1.148,52.255,1.148z"/>
</g>
<g>
	<path fill="#DBDEE1" d="M57.632,6.828c-0.508,0.695-0.695,0.845-1.047,0.845c-0.187,0-0.351-0.12-0.351-0.404
		c0-0.074,0.015-0.172,0.12-0.561l0.329-1.211c0.06-0.231,0.105-0.501,0.105-0.591c0-0.135-0.067-0.217-0.18-0.217
		c-0.299,0-0.635,0.366-1.106,1.062c-0.336,0.501-0.396,0.673-0.748,1.854h-0.561l0.718-2.617c0.008-0.037,0.015-0.082,0.015-0.127
		c0-0.149-0.104-0.194-0.486-0.202V4.54c0.605-0.12,0.815-0.149,1.211-0.231l0.03,0.015l-0.501,1.63
		c0.748-1.196,1.249-1.645,1.727-1.645c0.321,0,0.486,0.187,0.486,0.456c0,0.134-0.03,0.291-0.075,0.448L56.899,6.73
		C56.824,7,56.794,7.127,56.794,7.187c0,0.067,0.03,0.135,0.12,0.135c0.104,0,0.239-0.119,0.456-0.396
		c0.052-0.06,0.105-0.127,0.157-0.194L57.632,6.828z"/>
</g>
<g>
	<path fill="#DBDEE1" d="M80.611,6.619c-0.01,0.039-0.02,0.079-0.02,0.109c0,0.189,0.199,0.309,0.568,0.309h0.149v0.159h-2.361
		V7.037c0.627-0.04,0.797-0.189,0.907-0.558l0.896-2.89c-0.797,1.266-1.305,1.634-2.072,1.634c-0.628,0-0.997-0.448-0.997-1.155
		c0-1.574,1.555-3.349,2.919-3.349c0.409,0,0.667,0.17,0.767,0.618l0.16-0.488h0.728L80.611,6.619z M80.631,0.939
		c-0.289,0-0.607,0.189-0.926,0.488c-0.678,0.647-1.166,1.674-1.166,2.501c0,0.468,0.16,0.767,0.528,0.767
		c0.249,0,0.558-0.129,0.817-0.358c0.678-0.588,1.335-1.973,1.335-2.8C81.219,1.208,80.96,0.939,80.631,0.939z"/>
</g>
<g>
	<path fill="#DBDEE1" d="M85.958,6.828c-0.508,0.695-0.695,0.845-1.047,0.845c-0.187,0-0.351-0.12-0.351-0.404
		c0-0.074,0.015-0.172,0.12-0.561l0.329-1.211c0.06-0.231,0.105-0.501,0.105-0.591c0-0.135-0.067-0.217-0.18-0.217
		c-0.299,0-0.635,0.366-1.106,1.062c-0.336,0.501-0.396,0.673-0.748,1.854h-0.561l0.718-2.617c0.008-0.037,0.015-0.082,0.015-0.127
		c0-0.149-0.104-0.194-0.486-0.202V4.54c0.605-0.12,0.815-0.149,1.211-0.231l0.03,0.015l-0.501,1.63
		c0.748-1.196,1.249-1.645,1.727-1.645c0.321,0,0.486,0.187,0.486,0.456c0,0.134-0.03,0.291-0.075,0.448L85.226,6.73
		C85.151,7,85.121,7.127,85.121,7.187c0,0.067,0.03,0.135,0.12,0.135c0.105,0,0.239-0.119,0.456-0.396
		c0.052-0.06,0.105-0.127,0.157-0.194L85.958,6.828z"/>
</g>
<g>
	<path fill="#DBDEE1" d="M109.029,83.151h-8.233l0.173-0.299c1.365-2.365,2.086-5.059,2.086-7.789c0-2.731-0.722-5.425-2.086-7.789
		l-0.173-0.299h8.233c5.593,0,10.813,2.959,13.69,7.741c0.167-1.044,1.074-1.845,2.165-1.845c1.208,0,2.192,0.983,2.192,2.191
		s-0.983,2.191-2.192,2.191c-1.091,0-1.998-0.801-2.165-1.845C119.841,80.192,114.622,83.151,109.029,83.151z M101.481,82.753h7.547
		c5.509,0,10.645-2.943,13.433-7.689c-2.788-4.746-7.924-7.689-13.433-7.689h-7.547c1.291,2.352,1.972,5.003,1.972,7.689
		C103.453,77.749,102.772,80.4,101.481,82.753z M124.884,73.271c-0.989,0-1.793,0.805-1.793,1.793s0.805,1.793,1.793,1.793
		s1.793-0.805,1.793-1.793S125.873,73.271,124.884,73.271z"/>
</g>
<g>
	<path fill="#DBDEE1" d="M110.518,75.019c-0.747,0.906-0.986,1.096-1.385,1.096c-0.279,0-0.398-0.119-0.398-0.408
		c0-0.249,0.02-0.329,0.229-1.146c-0.747,1.126-1.325,1.564-2.022,1.564c-0.558,0-0.997-0.398-0.997-1.155
		c0-1.545,1.524-3.349,2.85-3.349c0.429,0,0.717,0.21,0.797,0.578l0.109-0.479l0.03-0.029l0.608-0.07l0.07,0.03
		c-0.02,0.09-0.03,0.109-0.06,0.209c-0.468,1.704-0.887,3.418-0.887,3.617c0,0.069,0.06,0.13,0.14,0.13
		c0.09,0,0.219-0.08,0.518-0.409l0.269-0.289L110.518,75.019z M108.854,71.84c-0.449,0-0.887,0.309-1.306,0.917
		c-0.418,0.627-0.767,1.514-0.767,2.142c0,0.548,0.239,0.737,0.598,0.737c0.499,0,0.967-0.548,1.266-0.977
		c0.468-0.677,0.767-1.534,0.767-2.241C109.412,72.069,109.203,71.84,108.854,71.84z"/>
</g>
<g>
	<path fill="#DBDEE1" d="M111.648,78.506v-0.112c0.553-0.029,0.71-0.187,0.71-0.598v-3.357c0-0.254-0.067-0.366-0.225-0.366
		c-0.075,0-0.202,0.037-0.336,0.09l-0.202,0.074v-0.104l1.338-0.681l0.067,0.022v4.464c0,0.321,0.15,0.456,0.71,0.456v0.112H111.648
		z"/>
</g>
<g>
	<path fill="#DBDEE1" d="M101.65,60.145c0.377-0.565,0.774-0.788,1.192-0.788c0.516,0,0.802,0.328,0.802,0.872
		c0,1.15-1.053,2.28-2.071,2.28c-0.16,0-0.307-0.028-0.481-0.119c-0.119,0.488-0.279,1.061-0.279,1.158
		c0,0.153,0.104,0.202,0.432,0.202v0.111h-1.416V63.75c0.3-0.008,0.391-0.112,0.474-0.439l0.802-3.013
		c0.077-0.279,0.112-0.46,0.112-0.495c0-0.167-0.195-0.188-0.307-0.188h-0.153l-0.014-0.104l1.088-0.153
		c0.021,0,0.035,0.014,0.035,0.028c0,0-0.007,0.034-0.014,0.063L101.65,60.145z M102.585,59.656c-0.37,0-0.781,0.377-0.941,0.795
		c-0.202,0.523-0.453,1.423-0.453,1.66c0,0.153,0.139,0.265,0.334,0.265c0.37,0,0.705-0.23,1.011-0.662
		c0.335-0.468,0.481-0.977,0.481-1.465C103.017,59.852,102.899,59.656,102.585,59.656z"/>
</g>
<g>
	<path fill="#DBDEE1" d="M106.227,63.657c-0.338,0.463-0.463,0.563-0.696,0.563c-0.125,0-0.234-0.08-0.234-0.269
		c0-0.05,0.01-0.114,0.08-0.373l0.219-0.806c0.04-0.154,0.07-0.334,0.07-0.394c0-0.09-0.045-0.145-0.12-0.145
		c-0.199,0-0.423,0.244-0.736,0.707c-0.224,0.333-0.264,0.447-0.497,1.233h-0.373l0.478-1.741c0.005-0.024,0.01-0.055,0.01-0.084
		c0-0.1-0.07-0.13-0.323-0.135v-0.079c0.403-0.08,0.542-0.1,0.806-0.154l0.02,0.01l-0.333,1.084
		c0.498-0.796,0.831-1.094,1.149-1.094c0.214,0,0.323,0.124,0.323,0.303c0,0.09-0.02,0.194-0.05,0.299l-0.278,1.01
		c-0.05,0.179-0.07,0.264-0.07,0.304c0,0.045,0.02,0.089,0.08,0.089c0.069,0,0.159-0.079,0.303-0.264
		c0.035-0.039,0.07-0.084,0.104-0.129L106.227,63.657z"/>
</g>
<g>
	<path fill="#DBDEE1" d="M110.405,62.634h-0.07l-1.917-3.939h0.453l1.5,3.012l1.499-3.012h0.439L110.405,62.634z M108.529,58.387
		v-0.46h3.654v0.46H108.529z"/>
</g>
<g>
	<path fill="#DBDEE1" d="M116.292,63.484c-0.007,0.028-0.014,0.056-0.014,0.077c0,0.132,0.14,0.216,0.397,0.216h0.104v0.111h-1.652
		v-0.111c0.439-0.027,0.558-0.133,0.634-0.391l0.628-2.022c-0.558,0.886-0.914,1.145-1.451,1.145c-0.439,0-0.697-0.314-0.697-0.81
		c0-1.102,1.088-2.343,2.043-2.343c0.286,0,0.467,0.118,0.537,0.433l0.112-0.342h0.509L116.292,63.484z M116.306,59.51
		c-0.202,0-0.425,0.133-0.648,0.342c-0.474,0.453-0.816,1.172-0.816,1.75c0,0.328,0.112,0.537,0.37,0.537
		c0.174,0,0.391-0.091,0.572-0.251c0.474-0.411,0.935-1.381,0.935-1.959C116.718,59.698,116.537,59.51,116.306,59.51z"/>
</g>
<g>
	<path fill="#DBDEE1" d="M119.913,63.657c-0.338,0.463-0.463,0.563-0.696,0.563c-0.125,0-0.234-0.08-0.234-0.269
		c0-0.05,0.01-0.114,0.08-0.373l0.219-0.806c0.04-0.154,0.07-0.334,0.07-0.394c0-0.09-0.045-0.145-0.12-0.145
		c-0.199,0-0.423,0.244-0.736,0.707c-0.224,0.333-0.263,0.447-0.497,1.233h-0.373l0.478-1.741c0.005-0.024,0.01-0.055,0.01-0.084
		c0-0.1-0.07-0.13-0.323-0.135v-0.079c0.403-0.08,0.542-0.1,0.806-0.154l0.02,0.01l-0.333,1.084
		c0.498-0.796,0.831-1.094,1.149-1.094c0.214,0,0.323,0.124,0.323,0.303c0,0.09-0.02,0.194-0.05,0.299l-0.279,1.01
		c-0.049,0.179-0.069,0.264-0.069,0.304c0,0.045,0.02,0.089,0.08,0.089c0.07,0,0.159-0.079,0.303-0.264
		c0.035-0.039,0.07-0.084,0.104-0.129L119.913,63.657z"/>
</g>
<g>
	<path fill="#DBDEE1" d="M151.536,47.797h-8.313l0.173-0.299c1.379-2.389,2.108-5.109,2.108-7.868s-0.729-5.479-2.108-7.868
		l-0.173-0.299h8.313c5.651,0,10.923,2.989,13.829,7.821c0.167-1.045,1.074-1.846,2.165-1.846c1.208,0,2.191,0.983,2.191,2.191
		s-0.983,2.191-2.191,2.191c-1.091,0-1.998-0.801-2.165-1.846C162.458,44.808,157.187,47.797,151.536,47.797z M143.909,47.398h7.627
		c5.566,0,10.755-2.974,13.571-7.769c-2.816-4.795-8.005-7.769-13.571-7.769h-7.627c1.305,2.376,1.993,5.054,1.993,7.769
		S145.214,45.022,143.909,47.398z M167.529,37.837c-0.989,0-1.793,0.805-1.793,1.793s0.805,1.793,1.793,1.793
		s1.793-0.805,1.793-1.793S168.518,37.837,167.529,37.837z"/>
</g>
<g>
	<path fill="#DBDEE1" d="M149.934,38.897c0.677-1.126,1.226-1.505,1.923-1.505c0.667,0,1.156,0.429,1.156,1.196
		c0,1.574-1.644,3.308-3.188,3.308c-0.568,0-1.295-0.229-1.295-0.528v-0.06l1.415-5.211c0.06-0.239,0.09-0.379,0.09-0.469
		c0-0.219-0.05-0.229-0.638-0.249v-0.169c0.667-0.08,1.026-0.14,1.524-0.229l0.05,0.05c-0.08,0.299-0.149,0.588-0.209,0.817
		l-0.837,3.049H149.934z M151.468,37.881c-0.478,0-0.937,0.419-1.365,1.146c-0.438,0.737-0.718,1.703-0.718,2.302
		c0,0.229,0.149,0.339,0.458,0.339c0.428,0,0.857-0.21,1.226-0.588c0.598-0.618,1.096-1.604,1.096-2.342
		C152.166,38.13,151.907,37.881,151.468,37.881z"/>
</g>
<g>
	<path fill="#DBDEE1" d="M154.163,44.277v-0.112c0.553-0.029,0.71-0.187,0.71-0.598V40.21c0-0.254-0.067-0.366-0.225-0.366
		c-0.075,0-0.202,0.037-0.336,0.09l-0.202,0.074v-0.104l1.338-0.681l0.067,0.022v4.464c0,0.321,0.15,0.456,0.71,0.456v0.112H154.163
		z"/>
</g>
<g>
	<path fill="#DBDEE1" d="M144.167,24.632c0.376-0.565,0.774-0.788,1.192-0.788c0.516,0,0.802,0.328,0.802,0.872
		c0,1.15-1.053,2.28-2.071,2.28c-0.16,0-0.307-0.028-0.481-0.119c-0.119,0.488-0.279,1.061-0.279,1.157
		c0,0.154,0.104,0.203,0.432,0.203v0.111h-1.416v-0.111c0.3-0.008,0.391-0.112,0.474-0.439l0.802-3.013
		c0.077-0.279,0.112-0.46,0.112-0.495c0-0.167-0.195-0.188-0.307-0.188h-0.154l-0.014-0.104l1.088-0.153
		c0.021,0,0.035,0.014,0.035,0.028c0,0-0.007,0.034-0.014,0.063L144.167,24.632z M145.101,24.144c-0.37,0-0.781,0.377-0.941,0.795
		c-0.202,0.523-0.453,1.423-0.453,1.66c0,0.153,0.139,0.265,0.334,0.265c0.37,0,0.705-0.23,1.011-0.662
		c0.335-0.468,0.481-0.977,0.481-1.465C145.533,24.339,145.415,24.144,145.101,24.144z"/>
</g>
<g>
	<path fill="#DBDEE1" d="M148.743,28.145c-0.338,0.463-0.463,0.563-0.696,0.563c-0.125,0-0.234-0.08-0.234-0.269
		c0-0.05,0.01-0.114,0.08-0.373l0.219-0.806c0.04-0.154,0.07-0.334,0.07-0.394c0-0.09-0.045-0.145-0.12-0.145
		c-0.199,0-0.423,0.244-0.736,0.707c-0.224,0.333-0.263,0.447-0.497,1.233h-0.373l0.478-1.741c0.005-0.024,0.01-0.055,0.01-0.084
		c0-0.1-0.07-0.13-0.323-0.135v-0.079c0.403-0.08,0.542-0.1,0.806-0.154l0.02,0.01l-0.333,1.084
		c0.498-0.796,0.831-1.094,1.149-1.094c0.214,0,0.323,0.124,0.323,0.303c0,0.09-0.02,0.194-0.05,0.299l-0.279,1.01
		c-0.049,0.179-0.069,0.264-0.069,0.304c0,0.045,0.02,0.089,0.08,0.089c0.07,0,0.159-0.079,0.303-0.264
		c0.035-0.039,0.07-0.084,0.104-0.129L148.743,28.145z"/>
</g>
<g>
	<path fill="#DBDEE1" d="M152.921,27.121h-0.07l-1.917-3.939h0.453l1.5,3.012l1.499-3.012h0.439L152.921,27.121z M151.046,22.874
		v-0.46h3.654v0.46H151.046z"/>
</g>
<g>
	<path fill="#DBDEE1" d="M159.903,26.222c-0.523,0.635-0.69,0.767-0.969,0.767c-0.195,0-0.279-0.083-0.279-0.285
		c0-0.175,0.014-0.23,0.16-0.803c-0.523,0.788-0.927,1.096-1.416,1.096c-0.391,0-0.697-0.279-0.697-0.81
		c0-1.081,1.067-2.343,1.994-2.343c0.3,0,0.502,0.146,0.558,0.404l0.077-0.335l0.021-0.021l0.425-0.049l0.049,0.021
		c-0.014,0.063-0.021,0.077-0.042,0.146c-0.328,1.192-0.621,2.393-0.621,2.531c0,0.049,0.042,0.091,0.098,0.091
		c0.063,0,0.153-0.056,0.363-0.286l0.188-0.202L159.903,26.222z M158.738,23.997c-0.314,0-0.621,0.216-0.914,0.642
		c-0.293,0.439-0.537,1.06-0.537,1.499c0,0.384,0.167,0.517,0.418,0.517c0.349,0,0.677-0.384,0.886-0.684
		c0.328-0.475,0.537-1.074,0.537-1.569C159.129,24.157,158.982,23.997,158.738,23.997z"/>
</g>
<g>
	<path fill="#DBDEE1" d="M160.665,28.662v-0.074c0.368-0.021,0.473-0.125,0.473-0.398v-2.233c0-0.169-0.045-0.244-0.149-0.244
		c-0.05,0-0.134,0.025-0.224,0.061l-0.134,0.049v-0.069l0.89-0.452l0.045,0.015v2.97c0,0.214,0.1,0.304,0.473,0.304v0.074H160.665z"
		/>
</g>
<g>
	<path fill="#DBDEE1" d="M151.536,118.664h-8.313l0.173-0.299c1.379-2.389,2.108-5.109,2.108-7.868s-0.729-5.479-2.108-7.868
		l-0.173-0.299h8.313c5.651,0,10.923,2.989,13.829,7.82c0.167-1.045,1.074-1.846,2.165-1.846c1.208,0,2.191,0.983,2.191,2.192
		c0,1.208-0.983,2.191-2.191,2.191c-1.091,0-1.998-0.801-2.165-1.846C162.458,115.675,157.187,118.664,151.536,118.664z
		 M143.909,118.266h7.627c5.566,0,10.755-2.974,13.571-7.769c-2.815-4.795-8.004-7.769-13.571-7.769h-7.627
		c1.305,2.376,1.993,5.054,1.993,7.769S145.214,115.89,143.909,118.266z M167.529,108.703c-0.989,0-1.793,0.805-1.793,1.794
		c0,0.988,0.805,1.793,1.793,1.793s1.793-0.805,1.793-1.793C169.322,109.508,168.518,108.703,167.529,108.703z"/>
</g>
<g>
	<path fill="#DBDEE1" d="M149.934,109.764c0.677-1.126,1.226-1.505,1.923-1.505c0.667,0,1.156,0.429,1.156,1.196
		c0,1.574-1.644,3.308-3.188,3.308c-0.568,0-1.295-0.229-1.295-0.528v-0.06l1.415-5.211c0.06-0.239,0.09-0.379,0.09-0.469
		c0-0.219-0.05-0.229-0.638-0.249v-0.169c0.667-0.08,1.026-0.14,1.524-0.229l0.05,0.05c-0.08,0.299-0.149,0.588-0.209,0.817
		l-0.837,3.049H149.934z M151.468,108.747c-0.478,0-0.937,0.419-1.365,1.146c-0.438,0.737-0.718,1.703-0.718,2.302
		c0,0.229,0.149,0.339,0.458,0.339c0.428,0,0.857-0.21,1.226-0.588c0.598-0.618,1.096-1.604,1.096-2.342
		C152.166,108.996,151.907,108.747,151.468,108.747z"/>
</g>
<g>
	<path fill="#DBDEE1" d="M156.421,115.144h-2.923v-0.09l1.331-1.413c0.703-0.74,0.972-1.309,0.972-1.944
		c0-0.68-0.404-1.054-1.039-1.054c-0.539,0-0.8,0.239-1.099,0.972l-0.157-0.037c0.157-0.875,0.636-1.488,1.555-1.488
		c0.845,0,1.383,0.576,1.383,1.316c0,0.591-0.292,1.151-0.957,1.854l-1.233,1.315h1.75c0.314,0,0.471-0.082,0.718-0.501l0.104,0.045
		L156.421,115.144z"/>
</g>
<g>
	<path fill="#DBDEE1" d="M146.203,97.088c-0.523,0.635-0.69,0.767-0.969,0.767c-0.195,0-0.279-0.083-0.279-0.285
		c0-0.175,0.014-0.23,0.16-0.803c-0.523,0.788-0.927,1.096-1.416,1.096c-0.391,0-0.697-0.279-0.697-0.81
		c0-1.081,1.067-2.343,1.994-2.343c0.3,0,0.502,0.146,0.558,0.404l0.077-0.335l0.021-0.021l0.425-0.049l0.049,0.021
		c-0.014,0.063-0.021,0.077-0.042,0.146c-0.328,1.192-0.621,2.393-0.621,2.531c0,0.049,0.042,0.091,0.098,0.091
		c0.063,0,0.153-0.056,0.363-0.286l0.188-0.202L146.203,97.088z M145.039,94.863c-0.314,0-0.621,0.216-0.914,0.642
		c-0.293,0.439-0.537,1.06-0.537,1.499c0,0.384,0.167,0.517,0.418,0.517c0.349,0,0.677-0.384,0.886-0.684
		c0.328-0.475,0.537-1.074,0.537-1.569C145.429,95.023,145.283,94.863,145.039,94.863z"/>
</g>
<g>
	<path fill="#DBDEE1" d="M146.965,99.528v-0.074c0.368-0.021,0.473-0.125,0.473-0.398v-2.233c0-0.169-0.045-0.244-0.149-0.244
		c-0.05,0-0.134,0.025-0.224,0.061l-0.134,0.049v-0.069l0.89-0.452l0.045,0.015v2.97c0,0.214,0.1,0.304,0.473,0.304v0.074H146.965z"
		/>
</g>
<g>
	<path fill="#DBDEE1" d="M152.914,97.987h-0.07l-1.917-3.939h0.453l1.5,3.012l1.499-3.012h0.439L152.914,97.987z M151.038,93.74
		v-0.46h3.654v0.46H151.038z"/>
</g>
<g>
	<path fill="#DBDEE1" d="M158.801,98.838c-0.007,0.028-0.014,0.056-0.014,0.077c0,0.132,0.14,0.216,0.397,0.216h0.104v0.111h-1.652
		v-0.111c0.439-0.027,0.558-0.133,0.634-0.391l0.628-2.022c-0.558,0.886-0.914,1.145-1.451,1.145c-0.439,0-0.697-0.314-0.697-0.81
		c0-1.102,1.088-2.343,2.043-2.343c0.286,0,0.467,0.118,0.537,0.433l0.112-0.342h0.509L158.801,98.838z M158.815,94.863
		c-0.202,0-0.425,0.133-0.648,0.342c-0.474,0.453-0.816,1.172-0.816,1.75c0,0.328,0.112,0.537,0.37,0.537
		c0.174,0,0.391-0.091,0.572-0.251c0.474-0.411,0.935-1.381,0.935-1.959C159.227,95.052,159.045,94.863,158.815,94.863z"/>
</g>
<g>
	<path fill="#DBDEE1" d="M162.421,99.011c-0.338,0.463-0.463,0.563-0.696,0.563c-0.125,0-0.234-0.08-0.234-0.269
		c0-0.05,0.01-0.114,0.08-0.373l0.219-0.806c0.04-0.154,0.07-0.334,0.07-0.394c0-0.09-0.045-0.145-0.12-0.145
		c-0.199,0-0.423,0.244-0.736,0.707c-0.224,0.333-0.263,0.447-0.497,1.233h-0.373l0.478-1.741c0.005-0.024,0.01-0.055,0.01-0.084
		c0-0.1-0.07-0.13-0.323-0.135v-0.079c0.403-0.08,0.542-0.1,0.806-0.154l0.02,0.01l-0.333,1.084
		c0.498-0.796,0.831-1.094,1.149-1.094c0.214,0,0.323,0.124,0.323,0.303c0,0.09-0.02,0.194-0.05,0.299l-0.279,1.01
		c-0.049,0.179-0.069,0.264-0.069,0.304c0,0.045,0.02,0.089,0.08,0.089c0.07,0,0.159-0.079,0.303-0.264
		c0.035-0.039,0.07-0.084,0.104-0.129L162.421,99.011z"/>
</g>
<g>
	<path fill="#DBDEE1" d="M194.117,82.867h-7.95l0.173-0.299c1.315-2.278,2.011-4.874,2.011-7.505s-0.695-5.227-2.011-7.505
		l-0.173-0.299h7.95c5.392,0,10.422,2.851,13.199,7.458c0.167-1.045,1.074-1.846,2.165-1.846c1.208,0,2.191,0.983,2.191,2.191
		s-0.983,2.191-2.191,2.191c-1.091,0-1.998-0.801-2.165-1.846C204.539,80.017,199.509,82.867,194.117,82.867z M186.853,82.469h7.264
		c5.307,0,10.255-2.835,12.941-7.405c-2.686-4.57-7.634-7.405-12.941-7.405h-7.264c1.241,2.266,1.896,4.818,1.896,7.405
		S188.094,80.203,186.853,82.469z M209.48,73.271c-0.989,0-1.793,0.805-1.793,1.793s0.805,1.793,1.793,1.793
		s1.793-0.805,1.793-1.793S210.469,73.271,209.48,73.271z"/>
</g>
<g>
	<path fill="#DBDEE1" d="M194.745,75.048c-0.608,0.768-1.136,1.076-1.883,1.076c-0.927,0-1.465-0.518-1.465-1.534
		c0-0.927,0.518-1.794,1.226-2.361c0.488-0.389,1.056-0.608,1.664-0.608s1.046,0.339,1.046,0.808c0,0.269-0.219,0.479-0.479,0.479
		c-0.279,0-0.389-0.199-0.389-0.399c0-0.179,0.149-0.288,0.149-0.478c0-0.12-0.139-0.199-0.369-0.199
		c-0.398,0-0.797,0.179-1.086,0.478c-0.558,0.588-0.907,1.436-0.907,2.322c0,0.717,0.319,1.136,0.887,1.136
		c0.528,0,0.907-0.249,1.445-0.817L194.745,75.048z"/>
</g>
<g>
	<path fill="#DBDEE1" d="M196.404,78.506v-0.112c0.553-0.029,0.71-0.187,0.71-0.598v-3.357c0-0.254-0.067-0.366-0.225-0.366
		c-0.075,0-0.202,0.037-0.336,0.09l-0.202,0.074v-0.104l1.338-0.681l0.067,0.022v4.464c0,0.321,0.15,0.456,0.71,0.456v0.112H196.404
		z"/>
</g>
<g>
	<path fill="#DBDEE1" d="M186.55,60.735c0.474-0.788,0.858-1.053,1.346-1.053c0.467,0,0.809,0.3,0.809,0.837
		c0,1.102-1.15,2.315-2.231,2.315c-0.397,0-0.907-0.161-0.907-0.37v-0.042l0.99-3.646c0.042-0.168,0.063-0.266,0.063-0.328
		c0-0.153-0.035-0.16-0.446-0.174v-0.119c0.467-0.056,0.718-0.098,1.067-0.16l0.035,0.035c-0.056,0.209-0.104,0.411-0.146,0.571
		l-0.585,2.134H186.55z M187.624,60.024c-0.334,0-0.655,0.293-0.955,0.802c-0.307,0.516-0.502,1.192-0.502,1.611
		c0,0.16,0.104,0.236,0.321,0.236c0.3,0,0.6-0.146,0.857-0.411c0.418-0.433,0.767-1.123,0.767-1.639
		C188.112,60.198,187.931,60.024,187.624,60.024z"/>
</g>
<g>
	<path fill="#DBDEE1" d="M189.48,64.501v-0.074c0.368-0.021,0.473-0.125,0.473-0.398v-2.233c0-0.169-0.045-0.244-0.149-0.244
		c-0.05,0-0.134,0.025-0.224,0.061l-0.134,0.049v-0.069l0.89-0.452l0.045,0.015v2.97c0,0.214,0.1,0.304,0.473,0.304v0.074H189.48z"
		/>
</g>
<g>
	<path fill="#DBDEE1" d="M195.43,62.96h-0.07l-1.917-3.939h0.453l1.5,3.012l1.499-3.012h0.439L195.43,62.96z M193.555,58.713v-0.46
		h3.654v0.46H193.555z"/>
</g>
<g>
	<path fill="#DBDEE1" d="M200.237,60.735c0.474-0.788,0.858-1.053,1.346-1.053c0.467,0,0.809,0.3,0.809,0.837
		c0,1.102-1.15,2.315-2.231,2.315c-0.397,0-0.907-0.161-0.907-0.37v-0.042l0.99-3.646c0.042-0.168,0.063-0.266,0.063-0.328
		c0-0.153-0.035-0.16-0.446-0.174v-0.119c0.467-0.056,0.718-0.098,1.067-0.16l0.035,0.035c-0.056,0.209-0.104,0.411-0.146,0.571
		l-0.585,2.134H200.237z M201.311,60.024c-0.334,0-0.655,0.293-0.955,0.802c-0.307,0.516-0.502,1.192-0.502,1.611
		c0,0.16,0.104,0.236,0.321,0.236c0.3,0,0.6-0.146,0.857-0.411c0.418-0.433,0.767-1.123,0.767-1.639
		C201.799,60.198,201.618,60.024,201.311,60.024z"/>
</g>
<g>
	<path fill="#DBDEE1" d="M204.669,64.501h-1.945v-0.06l0.886-0.94c0.467-0.492,0.646-0.87,0.646-1.293
		c0-0.453-0.269-0.701-0.691-0.701c-0.358,0-0.532,0.159-0.731,0.646l-0.104-0.025c0.104-0.582,0.423-0.989,1.035-0.989
		c0.562,0,0.92,0.383,0.92,0.875c0,0.394-0.194,0.767-0.637,1.233l-0.821,0.876h1.164c0.209,0,0.313-0.055,0.478-0.333l0.07,0.029
		L204.669,64.501z"/>
</g>
<g>
	<path fill="#DBDEE1" d="M236.923,85.887h-8.313l0.172-0.299c1.379-2.39,2.108-5.111,2.108-7.868s-0.729-5.479-2.108-7.869
		l-0.172-0.299h8.313c5.651,0,10.923,2.989,13.828,7.821c0.166-1.045,1.074-1.846,2.165-1.846c1.208,0,2.191,0.983,2.191,2.192
		c0,1.208-0.983,2.191-2.191,2.191c-1.091,0-1.999-0.801-2.165-1.846C247.846,82.897,242.574,85.887,236.923,85.887z
		 M229.296,85.488h7.627c5.566,0,10.755-2.974,13.57-7.769c-2.815-4.796-8.004-7.77-13.57-7.77h-7.627
		c1.305,2.378,1.993,5.057,1.993,7.77S230.601,83.111,229.296,85.488z M252.916,75.926c-0.989,0-1.794,0.805-1.794,1.794
		c0,0.988,0.805,1.793,1.794,1.793c0.988,0,1.793-0.805,1.793-1.793C254.709,76.73,253.904,75.926,252.916,75.926z"/>
</g>
<g>
	<path fill="#DBDEE1" d="M238.936,73.13c-0.159,0.608-0.249,0.997-0.389,1.515l-0.598,2.183c-0.309,1.136-0.647,2.292-0.647,2.451
		c0,0.119,0.05,0.199,0.179,0.199c0.17,0,0.279-0.09,0.817-0.708l0.119,0.1c-0.487,0.728-0.966,1.137-1.464,1.137
		c-0.26,0-0.409-0.18-0.409-0.448c0-0.229,0.021-0.389,0.13-0.888c-0.588,0.987-1.096,1.315-1.773,1.315
		c-0.647,0-1.066-0.408-1.066-1.166c0-1.613,1.614-3.338,2.909-3.338c0.419,0,0.588,0.189,0.648,0.578h0.01l0.448-1.624
		c0.149-0.528,0.14-0.567,0.14-0.707c0-0.21-0.09-0.239-0.638-0.26V73.3c0.638-0.06,0.996-0.119,1.524-0.229L238.936,73.13z
		 M236.764,75.711c-0.279,0-0.628,0.17-0.907,0.458c-0.657,0.698-1.155,1.784-1.155,2.611c0,0.458,0.229,0.727,0.577,0.727
		c0.917,0,1.953-1.713,1.953-3.228C237.231,75.92,236.992,75.711,236.764,75.711z"/>
</g>
<g>
	<path fill="#DBDEE1" d="M239.549,82.366v-0.112c0.554-0.029,0.711-0.187,0.711-0.598v-3.357c0-0.254-0.067-0.366-0.225-0.366
		c-0.074,0-0.202,0.037-0.336,0.09l-0.202,0.074v-0.104l1.338-0.681l0.067,0.022v4.464c0,0.321,0.149,0.456,0.711,0.456v0.112
		H239.549z"/>
</g>
<g>
	<path fill="#DBDEE1" d="M226.341,63.497c-0.425,0.537-0.795,0.754-1.317,0.754c-0.648,0-1.025-0.363-1.025-1.074
		c0-0.648,0.363-1.255,0.858-1.652c0.341-0.272,0.738-0.426,1.164-0.426s0.732,0.237,0.732,0.564c0,0.188-0.153,0.335-0.335,0.335
		c-0.195,0-0.271-0.14-0.271-0.278c0-0.126,0.104-0.203,0.104-0.335c0-0.084-0.098-0.14-0.259-0.14c-0.278,0-0.558,0.125-0.76,0.335
		c-0.391,0.411-0.635,1.004-0.635,1.624c0,0.503,0.224,0.795,0.621,0.795c0.369,0,0.635-0.174,1.011-0.571L226.341,63.497z"/>
</g>
<g>
	<path fill="#DBDEE1" d="M227.472,65.917v-0.074c0.368-0.021,0.473-0.125,0.473-0.398v-2.233c0-0.169-0.045-0.244-0.149-0.244
		c-0.05,0-0.134,0.025-0.224,0.061l-0.135,0.049v-0.069l0.891-0.452l0.045,0.015v2.97c0,0.214,0.1,0.304,0.473,0.304v0.074H227.472z
		"/>
</g>
<g>
	<path fill="#DBDEE1" d="M233.421,64.376h-0.069l-1.918-3.94h0.453l1.5,3.013l1.499-3.013h0.439L233.421,64.376z M231.546,60.129
		v-0.46h3.653v0.46H231.546z M240.395,63.184c-0.251,0.662-0.669,1.06-1.401,1.06c-0.99,0-1.597-0.684-1.597-1.652
		c0-0.963,0.628-1.625,1.597-1.625c0.495,0,1.046,0.237,1.263,0.711c0.042,0.098,0.076,0.202,0.111,0.307l-0.265,0.126
		c-0.293-0.551-0.468-0.837-1.137-0.837c-0.195,0-0.37,0.049-0.537,0.153v2.357c0.14,0.104,0.3,0.153,0.474,0.153
		c0.656,0,0.956-0.279,1.214-0.865L240.395,63.184z M238.122,61.559c-0.314,0.237-0.419,0.655-0.419,1.032
		c0,0.383,0.098,0.815,0.419,1.06V61.559z"/>
</g>
<g>
	<path fill="#DBDEE1" d="M242.163,66.795c-0.785-0.448-1.213-1.289-1.213-2.135c0-0.92,0.433-1.636,1.229-2.108l0.045,0.079
		c-0.692,0.592-0.846,1.055-0.846,2.015c0,0.926,0.148,1.487,0.846,2.069L242.163,66.795z"/>
</g>
<g>
	<path fill="#DBDEE1" d="M244.728,65.399c-0.338,0.463-0.462,0.563-0.696,0.563c-0.124,0-0.233-0.08-0.233-0.269
		c0-0.05,0.01-0.114,0.079-0.373l0.22-0.806c0.039-0.154,0.069-0.334,0.069-0.394c0-0.09-0.045-0.145-0.119-0.145
		c-0.199,0-0.423,0.244-0.736,0.707c-0.224,0.333-0.264,0.447-0.498,1.233h-0.373l0.478-1.741c0.005-0.024,0.01-0.055,0.01-0.084
		c0-0.1-0.069-0.13-0.323-0.135v-0.079c0.403-0.08,0.543-0.1,0.807-0.154l0.02,0.01l-0.333,1.084
		c0.497-0.796,0.83-1.094,1.148-1.094c0.214,0,0.323,0.124,0.323,0.303c0,0.09-0.02,0.194-0.05,0.299l-0.278,1.01
		c-0.05,0.179-0.069,0.264-0.069,0.304c0,0.045,0.02,0.089,0.079,0.089c0.07,0,0.159-0.079,0.304-0.264
		c0.035-0.039,0.069-0.084,0.104-0.129L244.728,65.399z"/>
</g>
<g>
	<path fill="#DBDEE1" d="M245.178,64.822v-0.328h2.771v0.328H245.178z"/>
</g>
<g>
	<path fill="#DBDEE1" d="M248.858,65.917v-0.074c0.368-0.021,0.473-0.125,0.473-0.398v-2.233c0-0.169-0.045-0.244-0.149-0.244
		c-0.05,0-0.134,0.025-0.224,0.061l-0.135,0.049v-0.069l0.891-0.452l0.045,0.015v2.97c0,0.214,0.1,0.304,0.473,0.304v0.074H248.858z
		"/>
</g>
<g>
	<path fill="#DBDEE1" d="M250.967,62.552c0.761,0.457,1.214,1.288,1.214,2.134c0,0.92-0.438,1.626-1.229,2.109l-0.045-0.08
		c0.706-0.582,0.846-1.05,0.846-2.015c0-0.93-0.125-1.502-0.846-2.069L250.967,62.552z"/>
</g>
<g>
	<path fill="#DBDEE1" d="M279.157,47.434h-7.949l0.172-0.299c1.315-2.279,2.011-4.874,2.011-7.505s-0.695-5.226-2.011-7.505
		l-0.172-0.299h7.949c5.393,0,10.423,2.851,13.198,7.458c0.166-1.045,1.074-1.846,2.165-1.846c1.208,0,2.191,0.983,2.191,2.191
		s-0.983,2.191-2.191,2.191c-1.091,0-1.999-0.801-2.165-1.846C289.58,44.583,284.55,47.434,279.157,47.434z M271.894,47.035h7.264
		c5.308,0,10.255-2.835,12.94-7.405c-2.686-4.57-7.633-7.405-12.94-7.405h-7.264c1.241,2.267,1.896,4.819,1.896,7.405
		S273.135,44.769,271.894,47.035z M294.521,37.837c-0.989,0-1.794,0.805-1.794,1.793s0.805,1.793,1.794,1.793
		c0.988,0,1.793-0.805,1.793-1.793S295.509,37.837,294.521,37.837z"/>
</g>
<g>
	<path fill="#DBDEE1" d="M279.823,39.614c-0.567,0.698-1.205,1.076-2.032,1.076c-0.808,0-1.346-0.538-1.346-1.365
		c0-1.544,1.485-3.139,2.979-3.139c0.528,0,0.817,0.26,0.817,0.678c0,0.857-1.047,1.635-2.83,1.863c-0.1,0.199-0.1,0.459-0.1,0.608
		c0,0.548,0.368,0.906,0.927,0.906c0.438,0,0.747-0.159,1.465-0.747L279.823,39.614z M277.481,38.509
		c0.857-0.21,1.236-0.389,1.604-0.737c0.309-0.299,0.498-0.658,0.498-0.967c0-0.239-0.069-0.389-0.349-0.389
		c-0.567,0-1.245,0.768-1.584,1.654L277.481,38.509z"/>
</g>
<g>
	<path fill="#DBDEE1" d="M281.442,43.071v-0.112c0.554-0.029,0.711-0.187,0.711-0.598v-3.357c0-0.254-0.067-0.366-0.225-0.366
		c-0.074,0-0.202,0.037-0.336,0.09l-0.202,0.074v-0.104l1.338-0.681l0.067,0.022v4.464c0,0.321,0.149,0.456,0.711,0.456v0.112
		H281.442z"/>
</g>
<g>
	<path fill="#DBDEE1" d="M273.193,26.647c-0.425,0.537-0.795,0.754-1.317,0.754c-0.648,0-1.025-0.363-1.025-1.074
		c0-0.648,0.363-1.255,0.858-1.652c0.341-0.272,0.738-0.426,1.164-0.426s0.732,0.237,0.732,0.564c0,0.188-0.153,0.335-0.335,0.335
		c-0.195,0-0.271-0.14-0.271-0.278c0-0.126,0.104-0.203,0.104-0.335c0-0.084-0.098-0.14-0.259-0.14c-0.278,0-0.558,0.125-0.76,0.335
		c-0.391,0.411-0.635,1.004-0.635,1.624c0,0.503,0.224,0.795,0.621,0.795c0.369,0,0.635-0.174,1.011-0.571L273.193,26.647z"/>
</g>
<g>
	<path fill="#DBDEE1" d="M274.324,29.068v-0.074c0.368-0.021,0.473-0.125,0.473-0.398v-2.233c0-0.169-0.045-0.244-0.149-0.244
		c-0.05,0-0.134,0.025-0.224,0.061l-0.135,0.049v-0.069l0.891-0.452l0.045,0.015v2.97c0,0.214,0.1,0.304,0.473,0.304v0.074H274.324z
		"/>
</g>
<g>
	<path fill="#DBDEE1" d="M280.274,27.526h-0.07l-1.918-3.939h0.454l1.499,3.012l1.499-3.012h0.439L280.274,27.526z M278.398,23.279
		v-0.46h3.653v0.46H278.398z"/>
</g>
<g>
	<path fill="#DBDEE1" d="M287.612,22.604c-0.111,0.425-0.174,0.697-0.271,1.06l-0.419,1.527c-0.216,0.795-0.453,1.604-0.453,1.716
		c0,0.083,0.035,0.139,0.126,0.139c0.118,0,0.195-0.063,0.571-0.495l0.084,0.07c-0.342,0.509-0.677,0.795-1.025,0.795
		c-0.182,0-0.286-0.126-0.286-0.314c0-0.16,0.015-0.271,0.091-0.62c-0.411,0.69-0.767,0.921-1.241,0.921
		c-0.453,0-0.746-0.286-0.746-0.816c0-1.13,1.13-2.336,2.036-2.336c0.293,0,0.411,0.133,0.453,0.404h0.007l0.314-1.137
		c0.104-0.369,0.098-0.397,0.098-0.495c0-0.146-0.063-0.167-0.446-0.181v-0.119c0.446-0.042,0.697-0.084,1.066-0.16L287.612,22.604z
		 M286.092,24.409c-0.194,0-0.438,0.119-0.634,0.321c-0.461,0.488-0.81,1.248-0.81,1.827c0,0.32,0.161,0.509,0.405,0.509
		c0.641,0,1.366-1.199,1.366-2.26C286.42,24.556,286.253,24.409,286.092,24.409z"/>
</g>
<g>
	<path fill="#DBDEE1" d="M288.012,29.068v-0.074c0.368-0.021,0.473-0.125,0.473-0.398v-2.233c0-0.169-0.045-0.244-0.149-0.244
		c-0.05,0-0.134,0.025-0.224,0.061l-0.135,0.049v-0.069l0.891-0.452l0.045,0.015v2.97c0,0.214,0.1,0.304,0.473,0.304v0.074H288.012z
		"/>
</g>
<g>
	<path fill="#DBDEE1" d="M279.157,129.64h-7.949l0.172-0.299c1.315-2.279,2.011-4.874,2.011-7.505c0-2.632-0.695-5.227-2.011-7.505
		l-0.172-0.299h7.949c5.393,0,10.423,2.851,13.198,7.458c0.166-1.046,1.074-1.847,2.165-1.847c1.208,0,2.191,0.983,2.191,2.192
		c0,1.208-0.983,2.191-2.191,2.191c-1.091,0-1.999-0.801-2.165-1.846C289.58,126.789,284.55,129.64,279.157,129.64z
		 M271.894,129.241h7.264c5.308,0,10.255-2.835,12.94-7.405c-2.686-4.57-7.633-7.405-12.94-7.405h-7.264
		c1.241,2.266,1.896,4.818,1.896,7.405C273.789,124.422,273.135,126.975,271.894,129.241z M294.521,120.042
		c-0.989,0-1.794,0.805-1.794,1.794c0,0.988,0.805,1.793,1.794,1.793c0.988,0,1.793-0.805,1.793-1.793
		C296.313,120.847,295.509,120.042,294.521,120.042z"/>
</g>
<g>
	<path fill="#DBDEE1" d="M279.823,121.819c-0.567,0.698-1.205,1.076-2.032,1.076c-0.808,0-1.346-0.538-1.346-1.365
		c0-1.544,1.485-3.139,2.979-3.139c0.528,0,0.817,0.26,0.817,0.678c0,0.857-1.047,1.635-2.83,1.863c-0.1,0.199-0.1,0.459-0.1,0.608
		c0,0.548,0.368,0.906,0.927,0.906c0.438,0,0.747-0.159,1.465-0.747L279.823,121.819z M277.481,120.714
		c0.857-0.21,1.236-0.389,1.604-0.737c0.309-0.299,0.498-0.658,0.498-0.967c0-0.239-0.069-0.389-0.349-0.389
		c-0.567,0-1.245,0.768-1.584,1.654L277.481,120.714z"/>
</g>
<g>
	<path fill="#DBDEE1" d="M283.701,125.276h-2.924v-0.09l1.331-1.413c0.703-0.74,0.972-1.309,0.972-1.944
		c0-0.68-0.403-1.054-1.039-1.054c-0.538,0-0.8,0.239-1.1,0.972l-0.156-0.037c0.156-0.875,0.635-1.488,1.555-1.488
		c0.845,0,1.384,0.576,1.384,1.316c0,0.591-0.292,1.151-0.957,1.854l-1.234,1.315h1.75c0.313,0,0.471-0.082,0.718-0.501l0.104,0.045
		L283.701,125.276z"/>
</g>
<g>
	<path fill="#DBDEE1" d="M269.441,103.93c-0.111,0.425-0.174,0.697-0.271,1.06l-0.419,1.527c-0.216,0.795-0.453,1.604-0.453,1.716
		c0,0.083,0.035,0.139,0.126,0.139c0.118,0,0.195-0.063,0.571-0.495l0.084,0.07c-0.342,0.509-0.677,0.795-1.025,0.795
		c-0.182,0-0.286-0.126-0.286-0.314c0-0.16,0.015-0.271,0.091-0.62c-0.411,0.69-0.767,0.921-1.241,0.921
		c-0.453,0-0.746-0.286-0.746-0.816c0-1.13,1.13-2.336,2.036-2.336c0.293,0,0.411,0.133,0.453,0.404h0.007l0.314-1.137
		c0.104-0.369,0.098-0.397,0.098-0.495c0-0.146-0.063-0.167-0.446-0.181v-0.119c0.446-0.042,0.697-0.084,1.066-0.16L269.441,103.93z
		 M267.921,105.735c-0.194,0-0.438,0.119-0.634,0.321c-0.461,0.488-0.81,1.248-0.81,1.827c0,0.32,0.161,0.509,0.404,0.509
		c0.642,0,1.367-1.199,1.367-2.26C268.249,105.882,268.082,105.735,267.921,105.735z"/>
</g>
<g>
	<path fill="#DBDEE1" d="M269.84,110.394v-0.074c0.368-0.021,0.473-0.125,0.473-0.398v-2.233c0-0.169-0.045-0.244-0.149-0.244
		c-0.05,0-0.134,0.025-0.224,0.061l-0.135,0.049v-0.069l0.891-0.452l0.045,0.015v2.97c0,0.214,0.1,0.304,0.473,0.304v0.074H269.84z"
		/>
</g>
<g>
	<path fill="#DBDEE1" d="M275.79,108.853h-0.069l-1.918-3.939h0.453l1.499,3.012l1.5-3.012h0.439L275.79,108.853z M273.914,104.605
		v-0.46h3.654v0.46H273.914z M282.764,107.66c-0.251,0.662-0.669,1.06-1.401,1.06c-0.99,0-1.597-0.683-1.597-1.652
		c0-0.962,0.628-1.625,1.597-1.625c0.495,0,1.046,0.237,1.262,0.712c0.042,0.098,0.077,0.202,0.112,0.307l-0.266,0.125
		c-0.292-0.551-0.467-0.836-1.137-0.836c-0.194,0-0.369,0.049-0.536,0.153v2.356c0.139,0.104,0.3,0.153,0.474,0.153
		c0.655,0,0.955-0.278,1.214-0.864L282.764,107.66z M280.49,106.035c-0.313,0.237-0.418,0.656-0.418,1.032
		c0,0.384,0.098,0.816,0.418,1.06V106.035z"/>
</g>
<g>
	<path fill="#DBDEE1" d="M284.531,111.271c-0.785-0.448-1.214-1.289-1.214-2.135c0-0.92,0.434-1.636,1.229-2.108l0.044,0.079
		c-0.691,0.592-0.845,1.055-0.845,2.015c0,0.926,0.148,1.487,0.845,2.069L284.531,111.271z"/>
</g>
<g>
	<path fill="#DBDEE1" d="M287.095,109.876c-0.338,0.463-0.462,0.563-0.696,0.563c-0.124,0-0.233-0.08-0.233-0.269
		c0-0.05,0.01-0.114,0.079-0.373l0.22-0.806c0.039-0.154,0.069-0.334,0.069-0.394c0-0.09-0.045-0.145-0.119-0.145
		c-0.199,0-0.423,0.244-0.736,0.707c-0.224,0.333-0.264,0.447-0.498,1.233h-0.373l0.478-1.741c0.005-0.024,0.01-0.055,0.01-0.084
		c0-0.1-0.069-0.13-0.323-0.135v-0.079c0.403-0.08,0.543-0.1,0.807-0.154l0.02,0.01l-0.333,1.084
		c0.497-0.796,0.83-1.094,1.148-1.094c0.214,0,0.323,0.124,0.323,0.303c0,0.09-0.02,0.194-0.05,0.299l-0.278,1.01
		c-0.05,0.179-0.069,0.264-0.069,0.304c0,0.045,0.02,0.089,0.079,0.089c0.07,0,0.159-0.079,0.304-0.264
		c0.035-0.039,0.069-0.084,0.104-0.129L287.095,109.876z"/>
</g>
<g>
	<path fill="#DBDEE1" d="M287.547,109.299v-0.328h2.771v0.328H287.547z"/>
</g>
<g>
	<path fill="#DBDEE1" d="M291.228,110.394v-0.074c0.368-0.021,0.473-0.125,0.473-0.398v-2.233c0-0.169-0.045-0.244-0.149-0.244
		c-0.05,0-0.134,0.025-0.224,0.061l-0.135,0.049v-0.069l0.891-0.452l0.045,0.015v2.97c0,0.214,0.1,0.304,0.473,0.304v0.074H291.228z
		"/>
</g>
<g>
	<path fill="#DBDEE1" d="M293.336,107.028c0.761,0.457,1.214,1.288,1.214,2.134c0,0.92-0.438,1.626-1.229,2.109l-0.045-0.08
		c0.706-0.582,0.846-1.05,0.846-2.015c0-0.93-0.125-1.502-0.846-2.069L293.336,107.028z"/>
</g>
<g>
	<path fill="#DBDEE1" d="M321.968,85.862h-8.288l0.172-0.299c1.375-2.382,2.102-5.095,2.102-7.844c0-2.75-0.727-5.463-2.102-7.844
		l-0.172-0.299h8.288c5.633,0,10.888,2.979,13.785,7.797c0.166-1.046,1.073-1.847,2.164-1.847c1.208,0,2.191,0.983,2.191,2.192
		c0,1.208-0.983,2.191-2.191,2.191c-1.091,0-1.998-0.801-2.164-1.846C332.855,82.882,327.6,85.862,321.968,85.862z M314.365,85.464
		h7.603c5.547,0,10.72-2.965,13.527-7.744c-2.808-4.779-7.979-7.744-13.527-7.744h-7.603c1.301,2.369,1.986,5.039,1.986,7.744
		S315.666,83.094,314.365,85.464z M337.917,75.926c-0.988,0-1.793,0.805-1.793,1.794c0,0.988,0.805,1.793,1.793,1.793
		s1.793-0.805,1.793-1.793C339.71,76.73,338.905,75.926,337.917,75.926z"/>
</g>
<g>
	<path fill="#DBDEE1" d="M321.166,75.587c0.22-0.707,0.389-1.256,0.718-1.724c0.299-0.429,0.707-0.768,1.315-0.768
		c0.488,0,0.856,0.26,0.856,0.618c0,0.219-0.189,0.429-0.418,0.429c-0.18,0-0.369-0.149-0.369-0.389c0-0.17,0.1-0.22,0.1-0.31
		c0-0.079-0.08-0.129-0.219-0.129c-0.559,0-0.927,0.697-1.216,2.271H323l-0.061,0.319h-1.076l-0.717,3.188
		c-0.419,1.843-1.086,2.819-1.993,2.819c-0.448,0-0.787-0.259-0.787-0.607c0-0.229,0.17-0.419,0.379-0.419
		c0.229,0,0.379,0.159,0.379,0.369c0,0.129-0.09,0.179-0.09,0.289c0,0.089,0.079,0.159,0.199,0.159c0.418,0,0.737-0.538,0.967-1.614
		l0.876-4.185h-0.906l0.069-0.319H321.166z"/>
</g>
<g>
	<path fill="#DBDEE1" d="M323.481,82.342v-0.112c0.554-0.029,0.711-0.187,0.711-0.598v-3.357c0-0.254-0.067-0.366-0.225-0.366
		c-0.074,0-0.202,0.037-0.336,0.09l-0.202,0.074v-0.104l1.338-0.681l0.067,0.022v4.464c0,0.321,0.149,0.456,0.711,0.456v0.112
		H323.481z"/>
</g>
<g>
	<path fill="#DBDEE1" d="M316.283,64.4c-0.397,0.488-0.844,0.754-1.423,0.754c-0.564,0-0.941-0.377-0.941-0.956
		c0-1.081,1.039-2.196,2.085-2.196c0.37,0,0.572,0.182,0.572,0.475c0,0.6-0.732,1.144-1.98,1.304
		c-0.069,0.14-0.069,0.32-0.069,0.425c0,0.384,0.258,0.635,0.648,0.635c0.307,0,0.522-0.111,1.024-0.522L316.283,64.4z
		 M314.645,63.627c0.6-0.146,0.864-0.272,1.123-0.517c0.216-0.209,0.349-0.46,0.349-0.676c0-0.168-0.049-0.272-0.244-0.272
		c-0.397,0-0.872,0.537-1.109,1.158L314.645,63.627z"/>
</g>
<g>
	<path fill="#DBDEE1" d="M317.387,66.821v-0.074c0.368-0.021,0.473-0.125,0.473-0.398v-2.233c0-0.169-0.045-0.244-0.149-0.244
		c-0.05,0-0.134,0.025-0.224,0.061l-0.135,0.049v-0.069l0.891-0.452l0.045,0.015v2.97c0,0.214,0.1,0.304,0.473,0.304v0.074H317.387z
		"/>
</g>
<g>
	<path fill="#DBDEE1" d="M323.337,65.279h-0.07l-1.918-3.939h0.454l1.499,3.012l1.499-3.012h0.439L323.337,65.279z M321.461,61.032
		v-0.46h3.653v0.46H321.461z"/>
</g>
<g>
	<path fill="#DBDEE1" d="M329.579,64.4c-0.397,0.488-0.844,0.754-1.423,0.754c-0.564,0-0.941-0.377-0.941-0.956
		c0-1.081,1.039-2.196,2.085-2.196c0.37,0,0.572,0.182,0.572,0.475c0,0.6-0.732,1.144-1.98,1.304
		c-0.069,0.14-0.069,0.32-0.069,0.425c0,0.384,0.258,0.635,0.648,0.635c0.307,0,0.522-0.111,1.024-0.522L329.579,64.4z
		 M327.94,63.627c0.6-0.146,0.864-0.272,1.123-0.517c0.216-0.209,0.349-0.46,0.349-0.676c0-0.168-0.049-0.272-0.244-0.272
		c-0.397,0-0.872,0.537-1.109,1.158L327.94,63.627z"/>
</g>
<g>
	<path fill="#DBDEE1" d="M332.184,66.821h-1.944v-0.06l0.885-0.94c0.468-0.492,0.647-0.87,0.647-1.293
		c0-0.453-0.269-0.701-0.691-0.701c-0.358,0-0.532,0.159-0.731,0.646l-0.104-0.025c0.104-0.582,0.423-0.989,1.034-0.989
		c0.563,0,0.921,0.383,0.921,0.875c0,0.394-0.194,0.767-0.637,1.233l-0.821,0.876h1.164c0.209,0,0.313-0.055,0.478-0.333
		l0.069,0.029L332.184,66.821z"/>
</g>
<g>
	<path fill="#DBDEE1" d="M321.968,145.391h-8.288l0.172-0.299c1.375-2.382,2.102-5.095,2.102-7.844c0-2.75-0.727-5.463-2.102-7.844
		l-0.172-0.299h8.288c5.633,0,10.888,2.979,13.785,7.797c0.166-1.046,1.073-1.847,2.164-1.847c1.208,0,2.191,0.983,2.191,2.192
		c0,1.208-0.983,2.191-2.191,2.191c-1.091,0-1.998-0.801-2.164-1.846C332.855,142.41,327.6,145.391,321.968,145.391z
		 M314.365,144.992h7.603c5.547,0,10.72-2.965,13.527-7.744c-2.808-4.779-7.979-7.744-13.527-7.744h-7.603
		c1.301,2.369,1.986,5.039,1.986,7.744S315.666,142.622,314.365,144.992z M337.917,135.454c-0.988,0-1.793,0.805-1.793,1.794
		c0,0.988,0.805,1.793,1.793,1.793s1.793-0.805,1.793-1.793C339.71,136.259,338.905,135.454,337.917,135.454z"/>
</g>
<g>
	<path fill="#DBDEE1" d="M321.166,135.113c0.22-0.707,0.389-1.256,0.718-1.724c0.299-0.429,0.707-0.768,1.315-0.768
		c0.488,0,0.856,0.26,0.856,0.618c0,0.219-0.189,0.429-0.418,0.429c-0.18,0-0.369-0.149-0.369-0.389c0-0.17,0.1-0.22,0.1-0.31
		c0-0.079-0.08-0.129-0.219-0.129c-0.559,0-0.927,0.697-1.216,2.271H323l-0.061,0.319h-1.076l-0.717,3.188
		c-0.419,1.843-1.086,2.819-1.993,2.819c-0.448,0-0.787-0.259-0.787-0.607c0-0.229,0.17-0.419,0.379-0.419
		c0.229,0,0.379,0.159,0.379,0.369c0,0.129-0.09,0.179-0.09,0.289c0,0.089,0.079,0.159,0.199,0.159c0.418,0,0.737-0.538,0.967-1.614
		l0.876-4.185h-0.906l0.069-0.319H321.166z"/>
</g>
<g>
	<path fill="#DBDEE1" d="M325.74,141.869h-2.924v-0.09l1.331-1.413c0.703-0.74,0.972-1.309,0.972-1.944
		c0-0.68-0.403-1.054-1.039-1.054c-0.538,0-0.8,0.239-1.1,0.972l-0.156-0.037c0.156-0.875,0.635-1.488,1.555-1.488
		c0.845,0,1.384,0.576,1.384,1.316c0,0.591-0.292,1.151-0.957,1.854l-1.234,1.315h1.75c0.313,0,0.471-0.082,0.718-0.501l0.104,0.045
		L325.74,141.869z"/>
</g>
<g>
	<path fill="#DBDEE1" d="M316.983,119.885c-0.111,0.425-0.174,0.697-0.271,1.06l-0.419,1.527c-0.216,0.795-0.453,1.604-0.453,1.716
		c0,0.083,0.035,0.139,0.126,0.139c0.118,0,0.195-0.063,0.571-0.495l0.084,0.07c-0.342,0.509-0.677,0.795-1.025,0.795
		c-0.182,0-0.286-0.126-0.286-0.314c0-0.16,0.015-0.271,0.091-0.62c-0.411,0.69-0.767,0.921-1.241,0.921
		c-0.453,0-0.746-0.286-0.746-0.816c0-1.13,1.13-2.336,2.036-2.336c0.293,0,0.411,0.133,0.453,0.404h0.007l0.314-1.137
		c0.104-0.369,0.098-0.397,0.098-0.495c0-0.146-0.063-0.167-0.446-0.181v-0.119c0.446-0.042,0.697-0.084,1.066-0.16L316.983,119.885
		z M315.463,121.69c-0.194,0-0.438,0.119-0.634,0.321c-0.461,0.488-0.81,1.248-0.81,1.827c0,0.32,0.161,0.509,0.405,0.509
		c0.641,0,1.366-1.199,1.366-2.26C315.791,121.837,315.624,121.69,315.463,121.69z"/>
</g>
<g>
	<path fill="#DBDEE1" d="M317.383,126.349v-0.074c0.368-0.021,0.473-0.125,0.473-0.398v-2.233c0-0.169-0.045-0.244-0.149-0.244
		c-0.05,0-0.134,0.025-0.224,0.061l-0.135,0.049v-0.069l0.891-0.452l0.045,0.015v2.97c0,0.214,0.1,0.304,0.473,0.304v0.074H317.383z
		"/>
</g>
<g>
	<path fill="#DBDEE1" d="M323.333,124.808h-0.07l-1.918-3.939h0.454l1.499,3.012l1.499-3.012h0.439L323.333,124.808z
		 M321.457,120.561v-0.46h3.653v0.46H321.457z"/>
</g>
<g>
	<path fill="#DBDEE1" d="M330.315,123.908c-0.523,0.635-0.69,0.767-0.97,0.767c-0.195,0-0.278-0.083-0.278-0.285
		c0-0.175,0.014-0.23,0.16-0.803c-0.523,0.788-0.928,1.096-1.416,1.096c-0.39,0-0.697-0.279-0.697-0.81
		c0-1.081,1.067-2.343,1.995-2.343c0.3,0,0.502,0.146,0.558,0.404l0.076-0.335l0.021-0.021l0.425-0.049l0.049,0.021
		c-0.014,0.063-0.021,0.077-0.041,0.146c-0.328,1.192-0.621,2.393-0.621,2.531c0,0.049,0.042,0.091,0.098,0.091
		c0.063,0,0.153-0.056,0.362-0.286l0.188-0.202L330.315,123.908z M329.15,121.684c-0.313,0-0.62,0.216-0.913,0.642
		c-0.293,0.439-0.537,1.06-0.537,1.499c0,0.384,0.168,0.517,0.419,0.517c0.349,0,0.676-0.384,0.886-0.684
		c0.327-0.475,0.536-1.074,0.536-1.569C329.541,121.844,329.395,121.684,329.15,121.684z"/>
</g>
<g>
	<path fill="#DBDEE1" d="M331.075,126.349v-0.074c0.368-0.021,0.473-0.125,0.473-0.398v-2.233c0-0.169-0.045-0.244-0.149-0.244
		c-0.05,0-0.134,0.025-0.224,0.061l-0.135,0.049v-0.069l0.891-0.452l0.045,0.015v2.97c0,0.214,0.1,0.304,0.473,0.304v0.074H331.075z
		"/>
</g>
<g>
	<path fill="#DBDEE1" d="M366.291,74.581c-0.379,0.011-0.668,0.021-0.996,0.229c-0.608,0.379-1.036,1.275-1.036,1.983v1.952h-1.475
		v-4.483h1.475v0.996h0.02c0.419-0.767,1.156-1.126,2.013-1.116V74.581z M363.82,74.701h-0.599v3.606h0.599V74.701z"/>
</g>
<g>
	<path fill="#DBDEE1" d="M368.777,80.46c-0.509,0.695-0.695,0.845-1.047,0.845c-0.187,0-0.352-0.12-0.352-0.404
		c0-0.074,0.016-0.172,0.12-0.561l0.329-1.211c0.06-0.231,0.104-0.501,0.104-0.591c0-0.135-0.067-0.217-0.18-0.217
		c-0.299,0-0.636,0.366-1.106,1.062c-0.337,0.501-0.396,0.673-0.748,1.854h-0.561l0.718-2.617c0.008-0.037,0.016-0.082,0.016-0.127
		c0-0.149-0.105-0.194-0.486-0.202v-0.119c0.605-0.12,0.814-0.149,1.211-0.231l0.03,0.015l-0.501,1.63
		c0.747-1.196,1.248-1.645,1.727-1.645c0.322,0,0.486,0.187,0.486,0.456c0,0.134-0.03,0.291-0.074,0.448l-0.419,1.518
		c-0.075,0.27-0.104,0.396-0.104,0.456c0,0.067,0.029,0.135,0.119,0.135c0.104,0,0.239-0.119,0.456-0.396
		c0.053-0.06,0.104-0.127,0.157-0.194L368.777,80.46z"/>
</g>
<g>
	<path fill="#DBDEE1" d="M365.878,136.845c-0.359,0.946-0.957,1.515-2.003,1.515c-1.415,0-2.282-0.977-2.282-2.361
		c0-1.376,0.897-2.322,2.282-2.322c0.707,0,1.494,0.339,1.804,1.017c0.06,0.14,0.109,0.289,0.159,0.438l-0.379,0.18
		c-0.418-0.788-0.667-1.196-1.624-1.196c-0.279,0-0.528,0.07-0.768,0.22v3.367c0.199,0.149,0.429,0.22,0.678,0.22
		c0.937,0,1.365-0.398,1.734-1.235L365.878,136.845z M362.629,134.522c-0.448,0.339-0.598,0.938-0.598,1.476
		c0,0.548,0.14,1.165,0.598,1.514V134.522z"/>
</g>
<g>
	<path fill="#DBDEE1" d="M369.869,139.972c-0.509,0.695-0.695,0.845-1.047,0.845c-0.187,0-0.352-0.12-0.352-0.404
		c0-0.074,0.016-0.172,0.12-0.561l0.329-1.211c0.06-0.231,0.104-0.501,0.104-0.591c0-0.135-0.067-0.217-0.18-0.217
		c-0.299,0-0.636,0.366-1.106,1.062c-0.337,0.501-0.396,0.673-0.748,1.854h-0.561l0.718-2.617c0.008-0.037,0.016-0.082,0.016-0.127
		c0-0.149-0.105-0.194-0.486-0.202v-0.119c0.605-0.12,0.814-0.149,1.211-0.231l0.03,0.015l-0.501,1.63
		c0.747-1.196,1.248-1.645,1.727-1.645c0.322,0,0.486,0.187,0.486,0.456c0,0.134-0.03,0.291-0.074,0.448l-0.419,1.518
		c-0.075,0.27-0.104,0.396-0.104,0.456c0,0.067,0.029,0.135,0.119,0.135c0.104,0,0.239-0.119,0.456-0.396
		c0.053-0.06,0.104-0.127,0.157-0.194L369.869,139.972z"/>
</g>
<g>
	<polygon fill="#DBDEE1" points="102.831,72.633 53.451,72.633 53.451,11.191 53.849,11.191 53.849,72.234 102.831,72.234 	"/>
</g>
<g>
	<rect x="53.65" y="36.774" fill="#DBDEE1" width="91.627" height="0.398"/>
</g>
<g>
	<circle fill="#DBDEE1" cx="53.65" cy="36.974" r="1.495"/>
</g>
<g>
	<polygon fill="#DBDEE1" points="145.277,113.353 81.797,113.353 81.797,11.191 82.196,11.191 82.196,112.954 145.277,112.954 	"/>
</g>
<g>
	<rect x="81.997" y="77.494" fill="#DBDEE1" width="20.834" height="0.398"/>
</g>
<g>
	<circle fill="#DBDEE1" cx="81.997" cy="77.693" r="1.494"/>
</g>
<g>
	<polygon fill="#DBDEE1" points="135.779,75.263 127.076,75.263 127.076,74.864 135.38,74.864 135.38,42.087 145.277,42.087 
		145.277,42.485 135.779,42.485 	"/>
</g>
<g>
	<polygon fill="#DBDEE1" points="145.277,108.04 135.38,108.04 135.38,75.063 135.779,75.063 135.779,107.642 145.277,107.642 	"/>
</g>
<g>
	<circle fill="#DBDEE1" cx="135.58" cy="75.063" r="1.494"/>
</g>
<g>
	<polygon fill="#DBDEE1" points="188.134,72.728 178.025,72.728 178.025,39.829 169.72,39.829 169.72,39.431 178.424,39.431 
		178.424,72.329 188.134,72.329 	"/>
</g>
<g>
	<polygon fill="#DBDEE1" points="178.424,110.696 169.72,110.696 169.72,110.298 178.025,110.298 178.025,77.399 188.134,77.399 
		188.134,77.798 178.424,77.798 	"/>
</g>
<g>
	<rect x="211.671" y="74.864" fill="#DBDEE1" width="18.993" height="0.398"/>
</g>
<g>
	<polygon fill="#DBDEE1" points="220.375,124.37 219.977,124.37 219.977,80.176 230.664,80.176 230.664,80.574 220.375,80.574 	"/>
</g>
<g>
	<circle fill="#DBDEE1" cx="220.176" cy="124.37" r="1.494"/>
</g>
<g>
	<polygon fill="#DBDEE1" points="220.375,75.063 219.977,75.063 219.977,36.896 273.175,36.896 273.175,37.294 220.375,37.294 	"/>
</g>
<g>
	<circle fill="#DBDEE1" cx="220.176" cy="75.063" r="1.494"/>
</g>
<g>
	<polygon fill="#DBDEE1" points="263.811,77.919 255.107,77.919 255.107,77.521 263.412,77.521 263.412,41.966 273.175,41.966 
		273.175,42.364 263.811,42.364 	"/>
</g>
<g>
	<polygon fill="#DBDEE1" points="273.175,119.5 263.412,119.5 263.412,77.72 263.811,77.72 263.811,119.102 273.175,119.102 	"/>
</g>
<g>
	<circle fill="#DBDEE1" cx="263.611" cy="77.72" r="1.494"/>
</g>
<g>
	<circle fill="#DBDEE1" cx="263.611" cy="119.301" r="1.494"/>
</g>
<g>
	<polygon fill="#DBDEE1" points="273.175,124.569 10.931,124.569 10.931,11.912 11.329,11.912 11.329,124.171 273.175,124.171 	"/>
</g>
<g>
	<polygon fill="#DBDEE1" points="315.728,75.271 305.017,75.271 305.017,39.829 296.712,39.829 296.712,39.431 305.415,39.431 
		305.415,74.872 315.728,74.872 	"/>
</g>
<g>
	<polygon fill="#DBDEE1" points="305.415,122.035 296.712,122.035 296.712,121.637 305.017,121.637 305.017,80.168 315.728,80.168 
		315.728,80.566 305.415,80.566 	"/>
</g>
<g>
	<polygon fill="#DBDEE1" points="315.728,134.8 263.412,134.8 263.412,119.301 263.811,119.301 263.811,134.401 315.728,134.401 	
		"/>
</g>
<g>
	<polygon fill="#DBDEE1" points="315.728,140.095 135.38,140.095 135.38,107.841 135.779,107.841 135.779,139.696 315.728,139.696 	
		"/>
</g>
<g>
	<circle fill="#DBDEE1" cx="135.58" cy="107.841" r="1.494"/>
</g>
<g>
	<rect x="340.108" y="77.521" fill="#DBDEE1" width="18.611" height="0.398"/>
</g>
<g>
	<rect x="340.108" y="137.049" fill="#DBDEE1" width="17.521" height="0.398"/>
</g>
</svg>